<svg xmlns="http://www.w3.org/2000/svg" width="77.568" height="76.62" viewBox="0 0 77.568 76.62">
    <defs>
        <style>
            .cls-1{fill:none;stroke:#00dcc3;stroke-linecap:round;stroke-linejoin:round;stroke-width:5px}
        </style>
    </defs>
    <g id="Icon_feather-check-circle" transform="translate(2.507 2.541)">
        <path id="Path_3704" d="M74.525 35.485v3.29A35.763 35.763 0 1 1 53.318 6.089" class="cls-1" transform="translate(-3 -2.991)"/>
        <path id="Path_3705" d="M59.991 6L24.229 41.8 13.5 31.07" class="cls-1" transform="translate(11.534 1.175)"/>
    </g>
</svg>
